================================ Output =====================================
General Information==========================================================

The range is from -1.0 to 1.0
The problem type is finding a local minima
Secant method is used

Result=======================================================================
The Local minima of the function is :0.40643242457151635
